{
    "inputMessageMetadata": {},
    "outputMessageMetadata": {
        "messagePayload": {
            "connectorName": "Web_Service_Consumer",
            "typeId": "GetGeoIPResponse"
        }
    },
    "id": "a6edd82c-7c31-4479-950f-746e480069db",
    "version": "5.2.0.0"
}