{
    "inputMessageMetadata": {},
    "outputMessageMetadata": {
        "messagePayload": {
            "connectorName": "Web_Service_Consumer",
            "typeId": "GetGeoIPResponse"
        }
    },
    "id": "dd5961ff-95f5-4bcb-b5d1-0fc0aec20e8c",
    "version": "5.2.0.0"
}